<?xml version="1.0" encoding="UTF-8" standalone="no"?>
<!-- Created with Inkscape (http://www.inkscape.org/) -->

<svg
   xmlns:dc="http://purl.org/dc/elements/1.1/"
   xmlns:cc="http://creativecommons.org/ns#"
   xmlns:rdf="http://www.w3.org/1999/02/22-rdf-syntax-ns#"
   xmlns:svg="http://www.w3.org/2000/svg"
   xmlns="http://www.w3.org/2000/svg"
   xmlns:sodipodi="http://sodipodi.sourceforge.net/DTD/sodipodi-0.dtd"
   xmlns:inkscape="http://www.inkscape.org/namespaces/inkscape"
   width="150mm"
   height="95mm"
   viewBox="0 0 164.99999 104.5"
   version="1.1"
   id="svg8"
   inkscape:version="0.92.2 (5c3e80d, 2017-08-06)"
   sodipodi:docname="bandera.svg">
  <defs
     id="defs2" />
  <sodipodi:namedview
     id="base"
     pagecolor="#ffffff"
     bordercolor="#666666"
     borderopacity="1.0"
     inkscape:pageopacity="0.0"
     inkscape:pageshadow="2"
     inkscape:zoom="0.7"
     inkscape:cx="384.65411"
     inkscape:cy="302.10221"
     inkscape:document-units="mm"
     inkscape:current-layer="layer1"
     showgrid="false"
     scale-x="1.1"
     inkscape:window-width="1366"
     inkscape:window-height="705"
     inkscape:window-x="-8"
     inkscape:window-y="-8"
     inkscape:window-maximized="1" />
  <metadata
     id="metadata5">
    <rdf:RDF>
      <cc:Work
         rdf:about="">
        <dc:format>image/svg+xml</dc:format>
        <dc:type
           rdf:resource="http://purl.org/dc/dcmitype/StillImage" />
        <dc:title></dc:title>
      </cc:Work>
    </rdf:RDF>
  </metadata>
  <g
     inkscape:label="Capa 1"
     inkscape:groupmode="layer"
     id="layer1"
     transform="translate(0,-212.5)">
    <rect
       style="opacity:1;fill:#ac0000;fill-opacity:1;stroke:#ac0000;stroke-width:0.26458332;stroke-opacity:1"
       id="rect4510"
       width="83.15477"
       height="52.160725"
       x="83.116959"
       y="212.67351" />
    <rect
       style="opacity:1;fill:#000080;fill-opacity:1;stroke:#000080;stroke-width:0.266974;stroke-opacity:1"
       id="rect4510-6"
       width="84.664276"
       height="52.160725"
       x="-0.79135787"
       y="264.8342" />
    <rect
       style="opacity:1;fill:#ffffff;fill-opacity:1;stroke:#ffffff;stroke-width:0.26458332;stroke-opacity:1"
       id="rect4510-6-4"
       width="84.288689"
       height="52.538712"
       x="0.34017384"
       y="211.91756" />
    <rect
       style="opacity:1;fill:#ffffff;fill-opacity:1;stroke:#ffffff;stroke-width:0.26041454;stroke-opacity:1"
       id="rect4510-6-4-5"
       width="81.647026"
       height="52.542885"
       x="84.437805"
       y="264.64313" />
    <path
       sodipodi:type="star"
       style="opacity:1;fill:#000080;fill-opacity:1;stroke:#000080;stroke-width:0.26458332;stroke-opacity:1"
       id="path4557"
       sodipodi:sides="5"
       sodipodi:cx="40.405659"
       sodipodi:cy="235.73007"
       sodipodi:r1="13.985119"
       sodipodi:r2="6.9925594"
       sodipodi:arg1="-0.33029735"
       sodipodi:arg2="0.29802118"
       inkscape:flatsided="false"
       inkscape:rounded="0"
       inkscape:randomized="0"
       d="m 53.634825,231.19436 -6.544843,6.58893 1.717435,9.12685 -8.288917,-4.18842 -8.149436,4.45373 1.422011,-9.17752 -6.754063,-6.3743 9.167768,-1.48359 3.975195,-8.39327 4.243981,8.26061 z"
       inkscape:transform-center-x="0.069740752"
       inkscape:transform-center-y="-1.2689599" />
    <path
       sodipodi:type="star"
       style="opacity:1;fill:#800000;fill-opacity:1;stroke:#000080;stroke-width:0.26458332;stroke-opacity:1"
       id="path4557-0"
       sodipodi:sides="5"
       sodipodi:cx="123.63164"
       sodipodi:cy="292.21066"
       sodipodi:r1="13.985119"
       sodipodi:r2="6.9925594"
       sodipodi:arg1="-0.33029735"
       sodipodi:arg2="0.29802118"
       inkscape:flatsided="false"
       inkscape:rounded="0"
       inkscape:randomized="0"
       d="m 136.8608,287.67495 -6.54484,6.58893 1.71744,9.12686 -8.28892,-4.18843 -8.14944,4.45373 1.42201,-9.17752 -6.75406,-6.3743 9.16777,-1.48359 3.97519,-8.39326 4.24398,8.2606 z"
       inkscape:transform-center-x="0.069740752"
       inkscape:transform-center-y="-1.2689599" />
  </g>
</svg>
