1548110034
a:2:{s:7:"content";s:385:"<h1>Docker</h1>
<blockquote>
<p>Compré un servidor linux en DigitalOcean.com en el cual instalé Docker y desarrollé la practica del profesor que trataba de poner WordPress en un servidor Apache. Hecho esto empezé a levantar mis servidores, configuré un servidor Apache, otro MySQL y otro con PhpMyAdmin para poder subir una web desde mi repositorio en Bitbucket.</p>
</blockquote>";s:12:"content_meta";N;}