1548108599
a:2:{s:7:"content";s:1666:"<h1>Imagen svg y canvas</h1>
<p><img alt="Unsplash Image" src="/user/pages/blog/2018-10-29-Imagen-sgv-canvas/bandera.svg" /></p>
<canvas id='canvas' width='400' height='250' style='border-style:solid;'>Su navegador no tiene soporte para mostrar el contenido</canvas>
<script>var canvas = document.getElementById("canvas");var ctx = canvas.getContext("2d");            ctx.fillStyle = "rgb(250,0,0)";            ctx.fillRect (205, 0, 200, 125);           ctx.fillStyle = "rgb(0, 0, 250)";            ctx.fillRect (0, 125, 205, 125);            ctx.fillStyle = "rgb(0,0,250)";            ctx.lineWidth = 3;            var X = (canvas.width / 4)-1;            var Y = (canvas.height / 4)-1;            var R = 35;            var L = 5;            var paso = 2;              var estrella= L / paso;            var rad = (2*Math.PI) / estrella;            ctx.beginPath();            for( var i = 0; i < L; i++ ){       x = X + R * Math.cos( rad*i );      y = Y + R * Math.sin( rad*i );      ctx.lineTo(x, y);            }            ctx.closePath();            ctx.stroke();            ctx.fill();            ctx.fillStyle = "rgb(250,0,0)";            ctx.lineWidth = 3;           var X = (canvas.width / 4)+200;            var Y = (canvas.height / 4)+125;            var R = 35;            var L = 5;            var paso = 2;             var estrella= L / paso;            var rad = (2*Math.PI) / estrella;            ctx.beginPath();            for( var i = 0; i < L; i++ ){       x = X + R * Math.cos( rad*i );      y = Y + R * Math.sin( rad*i );      ctx.lineTo(x, y);            }            ctx.closePath();            ctx.stroke();            ctx.fill();</script>";s:12:"content_meta";N;}